%YAML 1.1
%TAG !u! tag:unity3d.com,2011:
--- !u!21 &2100000
Material:
  serializedVersion: 6
  m_ObjectHideFlags: 0
  m_CorrespondingSourceObject: {fileID: 0}
  m_PrefabInstance: {fileID: 0}
  m_PrefabAsset: {fileID: 0}
  m_Name: Sample Material_Hologram Shader
  m_Shader: {fileID: -6465566751694194690, guid: 4dc9202b34e5378479c7d37259109a45, type: 3}
  m_ShaderKeywords: 
  m_LightmapFlags: 4
  m_EnableInstancingVariants: 0
  m_DoubleSidedGI: 0
  m_CustomRenderQueue: -1
  stringTagMap: {}
  disabledShaderPasses: []
  m_SavedProperties:
    serializedVersion: 3
    m_TexEnvs:
    - AlbedoMap:
        m_Texture: {fileID: 2800000, guid: b403174d3c9bf7a439760e89981ba98c, type: 3}
        m_Scale: {x: 1, y: 1}
        m_Offset: {x: 0, y: 0}
    - HologramTexture:
        m_Texture: {fileID: 2800000, guid: 8a892887c81cb014ca7edd839cf0bb74, type: 3}
        m_Scale: {x: 1, y: 1}
        m_Offset: {x: 0, y: 0}
    - unity_Lightmaps:
        m_Texture: {fileID: 0}
        m_Scale: {x: 1, y: 1}
        m_Offset: {x: 0, y: 0}
    - unity_LightmapsInd:
        m_Texture: {fileID: 0}
        m_Scale: {x: 1, y: 1}
        m_Offset: {x: 0, y: 0}
    - unity_ShadowMasks:
        m_Texture: {fileID: 0}
        m_Scale: {x: 1, y: 1}
        m_Offset: {x: 0, y: 0}
    m_Floats:
    - ScrollSpeed: 0.0625
    - _QueueControl: 0
    - _QueueOffset: 0
    - _RECEIVE_SHADOWS_OFF: 0
    m_Colors:
    - AlbedoColor: {r: 1, g: 1, b: 1, a: 0.45490196}
    - FresnelColor: {r: 0.022717923, g: 0.15019085, b: 0, a: 1}
    - HologramColor: {r: 0.17621928, g: 0.3773585, b: 0.23299244, a: 1}
    - HologramTiling: {r: 1, g: -0.01, b: 0, a: 1}
  m_BuildTextureStacks: []
--- !u!114 &9050971674706489077
MonoBehaviour:
  m_ObjectHideFlags: 11
  m_CorrespondingSourceObject: {fileID: 0}
  m_PrefabInstance: {fileID: 0}
  m_PrefabAsset: {fileID: 0}
  m_GameObject: {fileID: 0}
  m_Enabled: 1
  m_EditorHideFlags: 0
  m_Script: {fileID: 11500000, guid: d0353a89b1f911e48b9e16bdc9f2e058, type: 3}
  m_Name: 
  m_EditorClassIdentifier: 
  version: 5
